{
    "about": {
        "analysisDoneAt": "L'analyse a été effectuée à",
        "analysisDur": "La durée de l'analyse était de",
        "contactAt": "Vous pouvez me contacter via",
        "customStatusCode901": "Erreur lors de la création de la requête HTTP",
        "customStatusCode911": "Erreur lors de la requête",
        "customStatusCode912": "Délai de traitement des demandes",
        "customStatusCode913": "DNS Erreur lors de la requête",
        "customStatusCode914": "Erreur de protocole faisant la demande",
        "customStatusCode915": "Autorité de certification",
        "customStatusCode916": "Certificat expiré",
        "customStatusCode917": "Domaine du certificat",
        "customStatusCode918": "Impossible d'analyser l'URL parce qu'un CDN est utilisé",
        "customStatusCode919": "Shortener URL utilisé",
        "customStatusCode920": "Paramètres de suivi trouvés",
        "customStatusCode921": "Médias sociaux URL détectée",
        "customStatusCode922": "Domaine est à vendre",
        "customStatusCode923": "Version TLS disponible",
        "customstatuscodes": "Codes d'état personnalisés",
        "customstatuscodesdescription": "Cet outil définit certains codes de statut personnalisés. Voici une liste complète d'entre eux",
        "generalinfo": "Informations générales",
        "h2keys": "Clés analysées",
        "headline": "Analyse des URLs dans la zone",
        "keysdescription": "Une liste des clés OpenStreetMap en cours d'analyse est disponible sur",
        "nrBrokenURLs": "De l'ensemble des URLs analysées, le nombre d'erreurs est de",
        "nrCommonRedirectsNotReport": "Nombre de redirections communes et non reportées",
        "nrPOIsWoURL": "Le nombre total de POIs sans URL est de",
        "nrURLsIgnored": "Nombre d'URL ignorées selon la liste",
        "olvIn": "OSM-Link-Validator à",
        "oneObjectMultipleURLs": "Un élément OSM peut avoir plusieurs URLs",
        "overpassDur": "La durée de la demande d'API Overpass était",
        "pageGenAt": "Ces pages ont été générées à",
        "sourceAt": "Son code source se trouve à",
        "totalNrAnalyzedObjects": "Le nombre total d'éléments OSM analyés est de",
        "totalNrAnalyzedURLs": "Le nombre total d'URL analysées est de",
        "usually": "souvent",
        "version": "version",
        "wasUsed": "a été utilisé"
    },
    "chart": {
        "aMonth": "Un mois",
        "aWeek": "Une semaine",
        "all": "Tout",
        "headline": "Statistiques des erreurs d'URLs dans la zone",
        "no912status": "Le diagramme n'affiche pas les données avec un code Timeout 912, celui-ci dépend de nombreux facteurs.",
        "nrDaysDisplayed": "Sélectionner le nombre de jours à afficher",
        "statussums": "Sommes d'états",
        "twoMonths": "Deux mois",
        "twoWeeks": "Deux semaines"
    },
    "footer": {
        "contributors": "Contributeurs",
        "pageGenAt": "page générée à"
    },
    "map": {
        "close": "fermer",
        "headline": "Carte des erreurs d'URLs dans la zone",
        "legend.description": "Les symboles signifient",
        "legend.headline": "Légende",
        "legend.marker1.alt": "Marqueur",
        "legend.marker1.description": "Cet élément retourne une erreur dans une des URLs."
    },
    "nav": {
        "about": "À propos",
        "chart": "Diagramme",
        "language": "Langue",
        "map": "Carte",
        "pois-no-url": "Éléments sans URL",
        "table": "Tableau"
    },
    "poisnourl": {
        "headline": "Éléments OSM sans URL dans la zone"
    },
    "table": {
        "address": "Adresse",
        "analysis": "Analyse",
        "city": "Ville",
        "consideredPOIs": "types d'éléments analysés",
        "coordinates": "Coordonnées",
        "editlinks": "Modifier les liens",
        "feature": "Élément",
        "headline": "Éléments OSM dans la zone avec URLs à analyser",
        "id": "ID",
        "name": "Nom",
        "nofaultyurls": "aucune erreur d'URLs dans la zone",
        "nopoiswithouturl": "pas d'élément sans URL dans la zone",
        "operator": "Gestionnaire",
        "postcode": "Code postal",
        "redirectURL": "URL de redirection",
        "searchlinks": "Liens de recherche",
        "status": "État",
        "streetno": "Voie, numéro",
        "tagtype": "Attribut",
        "type": "Type",
        "url": "URL"
    }
}
